{
  "project_info": {
    "project_number": "184795423890",
    "project_id": "howlongago-731b1",
    "storage_bucket": "howlongago-731b1.appspot.com"
  },
  "client": [
    {
      "client_info": {
        "mobilesdk_app_id": "1:184795423890:android:235d88112182660a2f324b",
        "android_client_info": {
          "package_name": "app.howlongago"
        }
      },
      "oauth_client": [
        {
          "client_id": "184795423890-o2398o9mihkpu66ggton1tunmjepm9f7.apps.googleusercontent.com",
          "client_type": 3
        }
      ],
      "api_key": [
        {
          "current_key": "AIzaSyD4_7gE_oeXqRqt3zkiqw26bqRrtJzOT8g"
        }
      ],
      "services": {
        "appinvite_service": {
          "other_platform_oauth_client": [
            {
              "client_id": "184795423890-o2398o9mihkpu66ggton1tunmjepm9f7.apps.googleusercontent.com",
              "client_type": 3
            }
          ]
        }
      }
    }
  ],
  "configuration_version": "1"
}